<svg style="position: absolute; width: 0; height: 0; overflow: hidden;" version="1.1" xmlns="http://www.w3.org/2000/svg" xmlns:xlink="http://www.w3.org/1999/xlink">
<defs>
<symbol id="icon-magnet" viewBox="0 0 42 35">
<title>magnet</title>
<path class="path1" fill="#3dc1cb" d="M33.632 18.343c-0.066-0.059-0.137-0.115-0.216-0.18l-2.232 2.203 0.275 0.257 1.258 1.147 2.232-2.232z"></path>
<path class="path2" fill="#3dc1cb" d="M36.723 27.61c-0.372 0.746-1.129 1.25-2.005 1.25-0.672 0-1.275-0.297-1.685-0.768q-1.573-1.75-3.137-3.502l-2.221 2.23q1.479 1.652 2.958 3.305c1.159 1.298 2.6 1.959 4.344 1.865 2.095-0.113 3.632-1.141 4.585-3.001 0.244-0.478 0.359-1.028 0.527-1.544l0.065-0.899c-0.017-0.059-0.031-0.131-0.041-0.204-0.057-1.432-0.683-2.7-1.654-3.599-1.159-1.081-2.331-2.144-3.501-3.206l-2.25 2.232 3.486 3.174c0.467 0.411 0.759 1.009 0.759 1.677 0 0.36-0.085 0.7-0.237 1.001z"></path>
<path class="path3" fill="#3dc1cb" d="M28.699 23.252c-0.065-0.074-0.135-0.142-0.212-0.221l-2.248 2.219c0.090 0.090 0.158 0.153 0.219 0.223l1.206 1.346 2.228-2.228z"></path>
<path class="path4" fill="#fff" d="M29.917 25.103l-1.783 1.759c0.084 0.079 0.158 0.138 0.219 0.207 0.864 0.97 1.718 1.952 2.595 2.911 1.184 1.296 2.671 1.88 4.405 1.641 2.119-0.291 3.573-1.497 4.191-3.539 0.604-1.993 0.086-3.763-1.438-5.199-0.933-0.877-1.894-1.725-2.843-2.586-0.081-0.074-0.164-0.142-0.255-0.219l-1.761 1.736c0.104 0.099 0.18 0.169 0.253 0.237 0.983 0.899 1.977 1.777 2.947 2.68 0.512 0.471 0.831 1.145 0.831 1.892 0 1.419-1.151 2.57-2.57 2.57-0.765 0-1.453-0.335-1.923-0.865q-1.329-1.489-2.65-2.981c-0.063-0.077-0.124-0.149-0.219-0.244z"></path>
<path class="path5" fill="none" stroke="#3dc1cb" stroke-width="0.3594" stroke-miterlimit="10" stroke-linecap="butt" stroke-linejoin="miter" d="M19.109 12.39c0 0.44-0.35 0.796-0.782 0.796s-0.782-0.356-0.782-0.796c0-0.44 0.35-0.796 0.782-0.796s0.782 0.356 0.782 0.796z"></path>
<path class="path6" fill="none" stroke="#3dc1cb" stroke-width="0.3594" stroke-miterlimit="10" stroke-linecap="butt" stroke-linejoin="miter" d="M16.893 15.069c0-0.794 0.644-1.438 1.438-1.438s1.438 0.644 1.438 1.438z"></path>
<path class="path7" fill="none" stroke="#3dc1cb" stroke-width="0.3594" stroke-miterlimit="10" stroke-linecap="butt" stroke-linejoin="miter" d="M23.203 15.849c0 0.44-0.35 0.796-0.782 0.796s-0.782-0.356-0.782-0.796c0-0.44 0.35-0.796 0.782-0.796s0.782 0.356 0.782 0.796z"></path>
<path class="path8" fill="#3dc1cb" stroke="#3dc1cb" stroke-width="0.3594" stroke-miterlimit="10" stroke-linecap="butt" stroke-linejoin="miter" d="M20.987 18.53c0-0.794 0.644-1.438 1.438-1.438s1.438 0.644 1.438 1.438"></path>
<path class="path9" fill="#3dc1cb" stroke="#3dc1cb" stroke-width="0.3594" stroke-miterlimit="10" stroke-linecap="butt" stroke-linejoin="miter" d="M28.449 17.222c0 0.44-0.35 0.796-0.782 0.796s-0.782-0.356-0.782-0.796c0-0.44 0.35-0.796 0.782-0.796s0.782 0.356 0.782 0.796z"></path>
<path class="path10" fill="#3dc1cb" stroke="#3dc1cb" stroke-width="0.3594" stroke-miterlimit="10" stroke-linecap="butt" stroke-linejoin="miter" d="M26.238 19.902c0-0.794 0.644-1.438 1.438-1.438s1.438 0.644 1.438 1.438z"></path>
<path class="path11" fill="none" stroke="#3dc1cb" stroke-width="0.3594" stroke-miterlimit="10" stroke-linecap="butt" stroke-linejoin="miter" d="M23.983 8.172c0 0.44-0.35 0.796-0.782 0.796s-0.782-0.356-0.782-0.796c0-0.44 0.35-0.796 0.782-0.796s0.782 0.356 0.782 0.796z"></path>
<path class="path12" fill="#3dc1cb" stroke="#3dc1cb" stroke-width="0.3594" stroke-miterlimit="10" stroke-linecap="butt" stroke-linejoin="miter" d="M21.769 10.851c0-0.794 0.644-1.438 1.438-1.438s1.438 0.644 1.438 1.438"></path>
<path class="path13" fill="#3dc1cb" stroke="#3dc1cb" stroke-width="0.3594" stroke-miterlimit="10" stroke-linecap="butt" stroke-linejoin="miter" d="M28.044 5.487c0 0.44-0.35 0.796-0.782 0.796s-0.782-0.356-0.782-0.796c0-0.44 0.35-0.796 0.782-0.796s0.782 0.356 0.782 0.796z"></path>
<path class="path14" fill="none" stroke="#3dc1cb" stroke-width="0.3594" stroke-miterlimit="10" stroke-linecap="butt" stroke-linejoin="miter" d="M25.829 8.168c0-0.794 0.644-1.438 1.438-1.438s1.438 0.644 1.438 1.438z"></path>
<path class="path15" fill="#3dc1cb" stroke="#3dc1cb" stroke-width="0.3594" stroke-miterlimit="10" stroke-linecap="butt" stroke-linejoin="miter" d="M23.667 21.69c0 0.44-0.35 0.796-0.782 0.796s-0.782-0.356-0.782-0.796c0-0.44 0.35-0.796 0.782-0.796s0.782 0.356 0.782 0.796z"></path>
<path class="path16" fill="#3dc1cb" stroke="#3dc1cb" stroke-width="0.3594" stroke-miterlimit="10" stroke-linecap="butt" stroke-linejoin="miter" d="M21.451 24.369c0-0.794 0.644-1.438 1.438-1.438s1.438 0.644 1.438 1.438"></path>
<path class="path17" fill="#3dc1cb" stroke="#3dc1cb" stroke-width="0.3594" stroke-miterlimit="10" stroke-linecap="butt" stroke-linejoin="miter" d="M19.238 18.083c0 0.44-0.35 0.796-0.782 0.796s-0.782-0.356-0.782-0.796c0-0.44 0.35-0.796 0.782-0.796s0.782 0.356 0.782 0.796z"></path>
<path class="path18" fill="#3dc1cb" stroke="#3dc1cb" stroke-width="0.3594" stroke-miterlimit="10" stroke-linecap="butt" stroke-linejoin="miter" d="M17.023 20.762c0-0.794 0.644-1.438 1.438-1.438s1.438 0.644 1.438 1.438"></path>
<path class="path19" fill="none" stroke="#3dc1cb" stroke-width="0.3594" stroke-miterlimit="10" stroke-linecap="butt" stroke-linejoin="miter" d="M17.675 23.428c0 0.44-0.35 0.796-0.782 0.796s-0.782-0.356-0.782-0.796c0-0.44 0.35-0.796 0.782-0.796s0.782 0.356 0.782 0.796z"></path>
<path class="path20" fill="#3dc1cb" stroke="#3dc1cb" stroke-width="0.3594" stroke-miterlimit="10" stroke-linecap="butt" stroke-linejoin="miter" d="M15.455 26.107c0-0.794 0.644-1.438 1.438-1.438s1.438 0.644 1.438 1.438"></path>
<path class="path21" fill="none" stroke="#3dc1cb" stroke-width="0.3594" stroke-miterlimit="10" stroke-linecap="butt" stroke-linejoin="miter" d="M13.869 14.541c0 0.44-0.35 0.796-0.782 0.796s-0.782-0.356-0.782-0.796c0-0.44 0.35-0.796 0.782-0.796s0.782 0.356 0.782 0.796z"></path>
<path class="path22" fill="#3dc1cb" stroke="#3dc1cb" stroke-width="0.3594" stroke-miterlimit="10" stroke-linecap="butt" stroke-linejoin="miter" d="M11.653 17.222c0-0.794 0.644-1.438 1.438-1.438s1.438 0.644 1.438 1.438"></path>
<path class="path23" fill="none" stroke="#3dc1cb" stroke-width="0.3594" stroke-miterlimit="10" stroke-linecap="butt" stroke-linejoin="miter" d="M13.869 19.238c0 0.44-0.35 0.796-0.782 0.796s-0.782-0.356-0.782-0.796c0-0.44 0.35-0.796 0.782-0.796s0.782 0.356 0.782 0.796z"></path>
<path class="path24" fill="#3dc1cb" stroke="#3dc1cb" stroke-width="0.3594" stroke-miterlimit="10" stroke-linecap="butt" stroke-linejoin="miter" d="M11.653 21.925c0-0.794 0.644-1.438 1.438-1.438s1.438 0.644 1.438 1.438"></path>
<path class="path25" fill="#3dc1cb" stroke="#3dc1cb" stroke-width="0.3594" stroke-miterlimit="10" stroke-linecap="butt" stroke-linejoin="miter" d="M10.219 20.829c0 0.44-0.35 0.796-0.782 0.796s-0.782-0.356-0.782-0.796c0-0.44 0.35-0.796 0.782-0.796s0.782 0.356 0.782 0.796z"></path>
<path class="path26" fill="none" stroke="#3dc1cb" stroke-width="0.3594" stroke-miterlimit="10" stroke-linecap="butt" stroke-linejoin="miter" d="M8.003 23.508c0-0.794 0.644-1.438 1.438-1.438s1.438 0.644 1.438 1.438z"></path>
<path class="path27" fill="none" stroke="#3dc1cb" stroke-width="0.3594" stroke-miterlimit="10" stroke-linecap="butt" stroke-linejoin="miter" d="M17.804 8.024c0 0.44-0.35 0.796-0.782 0.796s-0.782-0.356-0.782-0.796c0-0.44 0.35-0.796 0.782-0.796s0.782 0.356 0.782 0.796z"></path>
<path class="path28" fill="#3dc1cb" stroke="#3dc1cb" stroke-width="0.3594" stroke-miterlimit="10" stroke-linecap="butt" stroke-linejoin="miter" d="M15.588 10.704c0-0.794 0.644-1.438 1.438-1.438s1.438 0.644 1.438 1.438"></path>
<path class="path29" fill="none" stroke="#3dc1cb" stroke-width="0.3594" stroke-miterlimit="10" stroke-linecap="butt" stroke-linejoin="miter" d="M20.895 4.692c0 0.44-0.35 0.796-0.782 0.796s-0.782-0.356-0.782-0.796c0-0.44 0.35-0.796 0.782-0.796s0.782 0.356 0.782 0.796z"></path>
<path class="path30" fill="none" stroke="#3dc1cb" stroke-width="0.3594" stroke-miterlimit="10" stroke-linecap="butt" stroke-linejoin="miter" d="M18.681 7.368c0-0.794 0.644-1.438 1.438-1.438s1.438 0.644 1.438 1.438z"></path>
<path class="path31" fill="none" stroke="#3dc1cb" stroke-width="0.3594" stroke-miterlimit="10" stroke-linecap="butt" stroke-linejoin="miter" d="M11.653 9.458c0 0.44-0.35 0.796-0.782 0.796s-0.782-0.356-0.782-0.796c0-0.44 0.35-0.796 0.782-0.796s0.782 0.356 0.782 0.796z"></path>
<path class="path32" fill="none" stroke="#3dc1cb" stroke-width="0.3594" stroke-miterlimit="10" stroke-linecap="butt" stroke-linejoin="miter" d="M9.437 12.138c0-0.794 0.644-1.438 1.438-1.438s1.438 0.644 1.438 1.438z"></path>
<path class="path33" fill="none" stroke="#3dc1cb" stroke-width="0.3594" stroke-miterlimit="10" stroke-linecap="butt" stroke-linejoin="miter" d="M2.396 8.885c0 0.44-0.35 0.796-0.782 0.796s-0.782-0.356-0.782-0.796c0-0.44 0.35-0.796 0.782-0.796s0.782 0.356 0.782 0.796z"></path>
<path class="path34" fill="none" stroke="#3dc1cb" stroke-width="0.3594" stroke-miterlimit="10" stroke-linecap="butt" stroke-linejoin="miter" d="M0.18 11.565c-0-0.006-0-0.014-0-0.022 0-0.794 0.644-1.438 1.438-1.438 0 0 0 0 0 0s0 0 0 0c0.794 0 1.438 0.644 1.438 1.438 0 0.008-0 0.015-0 0.023z"></path>
<path class="path35" fill="none" stroke="#3dc1cb" stroke-width="0.3594" stroke-miterlimit="10" stroke-linecap="butt" stroke-linejoin="miter" d="M5.249 0.976c0 0.44-0.35 0.796-0.782 0.796s-0.782-0.356-0.782-0.796c0-0.44 0.35-0.796 0.782-0.796s0.782 0.356 0.782 0.796z"></path>
<path class="path36" fill="none" stroke="#3dc1cb" stroke-width="0.3594" stroke-miterlimit="10" stroke-linecap="butt" stroke-linejoin="miter" d="M3.035 3.655c0-0.794 0.644-1.438 1.438-1.438s1.438 0.644 1.438 1.438z"></path>
<path class="path37" fill="none" stroke="#3dc1cb" stroke-width="0.3594" stroke-miterlimit="10" stroke-linecap="butt" stroke-linejoin="miter" d="M12.434 2.954c0 0.44-0.35 0.796-0.782 0.796s-0.782-0.356-0.782-0.796c0-0.44 0.35-0.796 0.782-0.796s0.782 0.356 0.782 0.796z"></path>
<path class="path38" fill="none" stroke="#3dc1cb" stroke-width="0.3594" stroke-miterlimit="10" stroke-linecap="butt" stroke-linejoin="miter" d="M10.219 5.634c0-0.794 0.644-1.438 1.438-1.438s1.438 0.644 1.438 1.438z"></path>
<path class="path39" fill="none" stroke="#3dc1cb" stroke-width="0.3594" stroke-miterlimit="10" stroke-linecap="butt" stroke-linejoin="miter" d="M8.784 14.541c0 0.44-0.35 0.796-0.782 0.796s-0.782-0.356-0.782-0.796c0-0.44 0.35-0.796 0.782-0.796s0.782 0.356 0.782 0.796z"></path>
<path class="path40" fill="none" stroke="#3dc1cb" stroke-width="0.3594" stroke-miterlimit="10" stroke-linecap="butt" stroke-linejoin="miter" d="M6.57 17.222c0-0.794 0.644-1.438 1.438-1.438s1.438 0.644 1.438 1.438z"></path>
<path class="path41" fill="#3dc1cb" stroke="#3dc1cb" stroke-width="0.3594" stroke-miterlimit="10" stroke-linecap="butt" stroke-linejoin="miter" d="M26.199 12.508c0 0.44-0.35 0.796-0.782 0.796s-0.782-0.356-0.782-0.796c0-0.44 0.35-0.796 0.782-0.796s0.782 0.356 0.782 0.796z"></path>
<path class="path42" fill="none" stroke="#3dc1cb" stroke-width="0.3594" stroke-miterlimit="10" stroke-linecap="butt" stroke-linejoin="miter" d="M23.983 15.188c0-0.794 0.644-1.438 1.438-1.438s1.438 0.644 1.438 1.438z"></path>
<path class="path43" fill="#3dc1cb" stroke="#3dc1cb" stroke-width="0.3594" stroke-miterlimit="10" stroke-linecap="butt" stroke-linejoin="miter" d="M30.846 11.196c0 0.44-0.35 0.796-0.782 0.796s-0.782-0.356-0.782-0.796c0-0.44 0.35-0.796 0.782-0.796s0.782 0.356 0.782 0.796z"></path>
<path class="path44" fill="#3dc1cb" stroke="#3dc1cb" stroke-width="0.3594" stroke-miterlimit="10" stroke-linecap="butt" stroke-linejoin="miter" d="M28.63 13.876c0-0.794 0.644-1.438 1.438-1.438s1.438 0.644 1.438 1.438"></path>
</symbol>
</defs>
</svg>
