<svg xmlns="http://www.w3.org/2000/svg" viewBox="0 0 752.70001 118.60001">
    <path d="M0 116V.8h48.4c16.3.2 32 1 43 15.8 3 4 7.3 11.7 7.3 24.5 0 16-7 25.8-11.8 30.3-8.8 8.6-20.4 9.5-31.7 10h-21v35H0zm47.4-61.6c5.6 0 12-.4 16-4.6a10.5 10.5 0 0 0 3.2-7.8 11.3 11.3 0 0 0-3-7.6c-5-5.4-13-4.8-19.4-4.8h-9.5v24.7h12.7m106.8 62l-1.3-7.7c-4.6 3.4-12.6 10-27 10-2.5 0-13.3-.2-20.7-6.4-3.2-2.8-8.8-9.5-8.8-20.6 0-2.6.7-7 5-12.7 6-8 13-10 22.3-12.4l15.3-2a47.8 47.8 0 0 1 5.8-1.2c.4-.2 3-.5 4.2-1.5 1.3-1 2.4-4.8 2.4-6.6 0-3.3-4.3-6-10.8-6-6 0-8.6 2.2-10 4.3-.8 1-1 2-1.2 4.7H100c1.4-6.8 2.7-12.2 7.5-17.8 6-6.7 15.4-11 34-11 3.4 0 17.7-1.4 28.2 5.6a23 23 0 0 1 8.8 10.5c3.2 7 2.3 15.2 2.3 22.4v23c0 14.5 1 17 3.6 25H154zm-3-37l-13 4-3.3 1c-1.8.4-6.7 1.5-6.7 7.7 0 3 1.6 8 8 8a38.7 38.7 0 0 0 7-1c5.7-1.7 6-5.5 7.7-7V79m91.3 37.3V75.5c0 4.8 1.4-16-3-18a14.2 14.2 0 0 0-7.6-2c-3.8 0-8 1.8-9.5 5.2-1.6 4-2 8-2 16.4v39.4h-31.5V32h29.7l.5 9.6c4-5 8.7-11.5 26.2-11.5 12.8 0 22.6 4.6 26.5 17.6 1 3.3 1.3 6.5 1.6 13.2v55.4h-31m175-60c-.7-3.2-3-8.5-11-8.5a15.8 15.8 0 0 0-7.4 1.7c-1 .3-2 2.4-2 5a5.4 5.4 0 0 0 2.3 3.6 24.8 24.8 0 0 0 7.2 2l12.4 3c8.6 2.3 16.2 4 22.3 10a19.6 19.6 0 0 1 5 8.2c1.6 4.4.8 7.8.8 9.2a25.3 25.3 0 0 1-7.4 18.6c-6 5.5-15.5 9.6-32.8 9.6-14.5 0-23.6-3.8-29-7-11.5-6.6-12-19-12.8-22.7l30-.3c.3 3 .7 5 3 7 2 2 4 3 9.4 3 6.4 0 10-3 10.2-5.8a5 5 0 0 0-.7-3.8c-1.5-2.4-5.4-3.4-11-5 0 0-17.6-3.7-19-4.3-4-2-19.7-5.5-19.7-23 0-10 5-15.5 8-18 5.4-5 14.3-9 30.2-9 3.5 0 18.3-.4 29.4 7.2a26 26 0 0 1 7.3 7.7c2.7 4.3 3 9.4 3.4 11.2H417M525.5 106.6c-5 5.2-15.6 12-33 12-5.5 0-20.8-.3-32-13.6-4.7-5.5-10.3-15-10.3-31.7a48.2 48.2 0 0 1 2.7-17c6-18.4 23-26.7 41-26.4 4.8 0 19.8.3 30.6 11.3 5.4 5.5 12.2 15.6 12 33.4 0 4.3-.2 20.8-11.3 32zm-23.3-51c-2.8-2.6-7-3-8.5-3a11.7 11.7 0 0 0-7 2.6c-4 3-6.7 7.8-6.7 18.3 0 8.2 2 22 13.6 22 3.3 0 6.5-.8 8.6-3.3 2.8-3 5.7-8.6 5.5-18.3 0-.6.2-12.6-5.5-18.4m130-24h31v85h-31zm0-31.6h31v22.2h-31V0zm90.5 64c-2.4-10-7.3-10.7-12.8-10.7-4.8 0-6 1.5-7.7 2.8-4 3.4-5.2 7.6-5.2 18 0 .7-.4 14.6 7 20 2.4 1.3 3.4 1.4 6 1.4a15.5 15.5 0 0 0 6-1c3-1.5 6-4 6.7-11.3h30c-.4 2-1.6 8.6-4.5 14-7.4 15-22.6 21-38 21a71 71 0 0 1-13-1.3c-12.2-3-23-11.5-27.5-23.6a51.3 51.3 0 0 1-3-18.4c0-3.8 0-13.7 5.5-23.5A40 40 0 0 1 679 42C690 30.5 707 30.2 711 30.2c15.7 0 25.5 6 30.3 10.4a36.2 36.2 0 0 1 6.7 10.5 44.7 44.7 0 0 1 3.7 13h-29.4M362.3 91.4v-23c0-7 0-16.8-3-23.6-2-4.6-3.6-7-7.8-9.8-10.5-7-26-5.7-29.4-5.7-18.3 0-28 5-34 11.6-4.6 5.7-5.6 11-7 17.8h29.4a9.5 9.5 0 0 1 1-4.8c1.7-2.2 4-4.8 10-4.8 6.4 0 10.7 3.3 10.7 6.6 0 1.8 0 4.7-1.4 5.7s-4.6 2-5.2 2.3a53 53 0 0 0-5.7 1.3l-15.3 2c-9.2 2-16.3 4-22.3 12a19.4 19.4 0 0 0-4.3 13.3c0 11 4.8 17.5 8 20.3 7.5 6 18 6 20.7 6 14.5 0 22-6.4 26.5-10l1.3 8.2H366c-2-5.6-3.8-8.5-3.6-25.4zm-38.6 7.8c-2 .7-5.6.5-6.4.5a8.8 8.8 0 0 1-8-8c0-6.2 5-7.2 6.5-7.5l3.3-1c4.5-1.5 8.8-2.7 13-4.2v11c-1 2.5-2.5 7.7-8.2 9.3M595 116.2V75c0 5 1.5-15.7-3-17.7a16 16 0 0 0-7.3-2c-3.8 0-8.2 1.8-9.5 5.2-1.8 4-2.6 7-2.5 15.5l-.3 40.4h-30.7v-85h29.6l.4 10c4-5 9-11.5 26.5-11.5 12.7 0 22.5 5.4 26.4 18.4 1 3.2 1 5.4 1.5 12v55.8h-31"/>
</svg>
